Chapter 5 Intro to data wrangling with tidyverse | Analysis of Household Education Survey Data using R
…
Tibbles are data frames (under the hood) that work very well with tidyverse packages. They are easier to read and manipulate than traditional data frames, especially when you have many rows or columns. In addition, each column reports its data type, a nice feature borrowed from str(). If your data is currently a standard data frame, convert it to a tibble using as_tibble().

Tibbles are designed so that you do not accidently overwhelm your console when you print large data frames.

Here’s an example.

# convert ratings to a "tibble"
dat = as_tibble(dat)

A nice feature of tibbles is that if you display them in the console (by typing dat, for example) only the first 10 rows and all columns are shown.

dat

## # A tibble: 96,452 × 147
##     ...1 CountryName TierOneUnit VillageID Location HHID      SubmissionDate duration hh06a hh06b1 hh06b2 hh06c hh06d hh07a hh07b hh07c hh07d hh07e hh07f hh07g hh07h hh07i hh07j hh07k
##    <dbl> <chr>       <chr>       <chr>     <chr>    <chr>     <date>            <dbl> <dbl>  <dbl>  <dbl> <dbl> <dbl> <dbl> <dbl> <dbl> <dbl> <dbl> <dbl> <dbl> <dbl> <dbl> <dbl> <dbl>
##  1     1 Mozambique  c101        c101      Urban    uuid:f58… 2025-09-23          979     4      1     NA     1     1     2     2     1     1     1     1     1     1     1     0     1
##  2     2 Mozambique  c101        c101      Urban    uuid:b98… 2025-09-23          986     7      1     NA     1     1     2     2     1     1     1     1     1     1     1     1     1
##  3     3 Mozambique  c101        c101      Urban    uuid:261… 2025-09-23         2167     6      1     NA     1     1     2     2     1     1     1     1     1     1     1     0     1
##  4     4 Mozambique  c101        c101      Urban    uuid:d46… 2025-09-23         2078     6      1     NA     1     1     1     1     1     4     1     1     1     1     1     0     1
##  5     5 Mozambique  c101        c101      Urban    uuid:df9… 2025-09-23         1251     5      1     NA     1     1     2     2     1     4     1     1     1     0     0     0     1
##  6     6 Mozambique  c101        c101      Urban    uuid:ade… 2025-09-23         2199     5      1     NA     1     1     2     2     1     4     1     1     1     1     1     0     1
##  7     7 Mozambique  c101        c101      Urban    uuid:3f8… 2025-09-23         2889     5      1     NA     1     1     2     2     1     1     1     1     1     1     1     1     1
##  8     8 Mozambique  c101        c101      Urban    uuid:ff7… 2025-09-23         1588     4      1     NA     1     0     2     2     1     1     1     1     1     1     0     1     1
##  9     9 Mozambique  c101        c101      Urban    uuid:773… 2025-09-23         2203     4      1     NA     1     1     2     2     1     4     1     1     1     1     0     0     1
## 10    10 Mozambique  c101        c101      Urban    uuid:e21… 2025-09-24         4647     5      1     NA     2     1     2     2     1     4     1     1     0     0     0     0     0
## # ℹ 96,442 more rows
## # ℹ 123 more variables: hh07l <dbl>, hh07m <dbl>, hh07n <dbl>, hh07o <dbl>, hh07p <dbl>, hh07p_3 <dbl>, hh07q <dbl>, ChildID <chr>, ch02 <dbl>, ch03 <dbl>, ch04a <dbl>, ch04b <dbl>,
## #   ch04c <dbl>, ch04d <dbl>, ch04e <dbl>, ch04f <dbl>, ch05 <dbl>, ch06a <dbl>, ch06b <dbl>, ch06c <dbl>, ch06d <dbl>, ch06e <dbl>, ch07a <dbl>, ch07b <dbl>, ch07c <dbl>,
## #   ch07d <dbl>, ch08 <dbl>, ch09 <dbl>, ch10a <dbl>, ch10b <dbl>, ch10c <dbl>, pt00 <dbl>, pt01b <dbl>, pt01c <dbl>, pt01d <dbl>, pt01e <dbl>, pt01f <dbl>, pt02b <dbl>, pt02c <dbl>,
## #   pt02d <dbl>, pt02e <dbl>, pt02f <dbl>, assessment <dbl>, sample <dbl>, l1_1 <dbl>, l1_2 <dbl>, l1_3 <dbl>, l1_4 <dbl>, l2_1 <dbl>, l2_2 <dbl>, l2_3 <dbl>, l2_4 <dbl>, l2_5 <dbl>,
## #   l3_1 <dbl>, l3_2 <dbl>, l3_3 <dbl>, l3_4 <dbl>, l3_5 <dbl>, l4_1 <dbl>, l4_2 <dbl>, l4_3 <dbl>, l4_4 <dbl>, l4_5 <dbl>, l4_6 <dbl>, l5_1 <dbl>, l5_2 <dbl>, l5_3 <dbl>,
## #   l5_4 <dbl>, l5_5 <dbl>, l6_1 <dbl>, l6_2 <dbl>, l6_3 <dbl>, l6_4 <dbl>, l6_5 <dbl>, n1 <dbl>, n2 <dbl>, n3 <dbl>, n4 <dbl>, n5 <dbl>, n6 <dbl>, n7 <dbl>, n8 <dbl>, n9 <dbl>, …
…
5.6 The Five Key dplyr Verbs

5.6.1 Filtering rows with filter()

The filter() function from dplyr is used to extract rows from the data that meet certain conditions.

Here we illustrate the use of filter() by extracting all children from Mozambique.

dat_moz = filter(dat, CountryName == "Mozambique")
dat_moz

## # A tibble: 8,255 × 147
##     ...1 CountryName TierOneUnit VillageID Location HHID      SubmissionDate duration hh06a hh06b1 hh06b2 hh06c hh06d hh07a hh07b hh07c hh07d hh07e hh07f hh07g hh07h hh07i hh07j hh07k
##    <dbl> <chr>       <chr>       <chr>     <chr>    <chr>     <date>            <dbl> <dbl>  <dbl>  <dbl> <dbl> <dbl> <dbl> <dbl> <dbl> <dbl> <dbl> <dbl> <dbl> <dbl> <dbl> <dbl> <dbl>
##  1     1 Mozambique  c101        c101      Urban    uuid:f58… 2025-09-23          979     4      1     NA     1     1     2     2     1     1     1     1     1     1     1     0     1
##  2     2 Mozambique  c101        c101      Urban    uuid:b98… 2025-09-23          986     7      1     NA     1     1     2     2     1     1     1     1     1     1     1     1     1
##  3     3 Mozambique  c101        c101      Urban    uuid:261… 2025-09-23         2167     6      1     NA     1     1     2     2     1     1     1     1     1     1     1     0     1
##  4     4 Mozambique  c101        c101      Urban    uuid:d46… 2025-09-23         2078     6      1     NA     1     1     1     1     1     4     1     1     1     1     1     0     1
##  5     5 Mozambique  c101        c101      Urban    uuid:df9… 2025-09-23         1251     5      1     NA     1     1     2     2     1     4     1     1     1     0     0     0     1
##  6     6 Mozambique  c101        c101      Urban    uuid:ade… 2025-09-23         2199     5      1     NA     1     1     2     2     1     4     1     1     1     1     1     0     1
##  7     7 Mozambique  c101        c101      Urban    uuid:3f8… 2025-09-23         2889     5      1     NA     1     1     2     2     1     1     1     1     1     1     1     1     1
##  8     8 Mozambique  c101        c101      Urban    uuid:ff7… 2025-09-23         1588     4      1     NA     1     0     2     2     1     1     1     1     1     1     0     1     1
##  9     9 Mozambique  c101        c101      Urban    uuid:773… 2025-09-23         2203     4      1     NA     1     1     2     2     1     4     1     1     1     1     0     0     1
## 10    10 Mozambique  c101        c101      Urban    uuid:e21… 2025-09-24         4647     5      1     NA     2     1     2     2     1     4     1     1     0     0     0     0     0
## # ℹ 8,245 more rows
## # ℹ 123 more variables: hh07l <dbl>, hh07m <dbl>, hh07n <dbl>, hh07o <dbl>, hh07p <dbl>, hh07p_3 <dbl>, hh07q <dbl>, ChildID <chr>, ch02 <dbl>, ch03 <dbl>, ch04a <dbl>, ch04b <dbl>,
## #   ch04c <dbl>, ch04d <dbl>, ch04e <dbl>, ch04f <dbl>, ch05 <dbl>, ch06a <dbl>, ch06b <dbl>, ch06c <dbl>, ch06d <dbl>, ch06e <dbl>, ch07a <dbl>, ch07b <dbl>, ch07c <dbl>,
## #   ch07d <dbl>, ch08 <dbl>, ch09 <dbl>, ch10a <dbl>, ch10b <dbl>, ch10c <dbl>, pt00 <dbl>, pt01b <dbl>, pt01c <dbl>, pt01d <dbl>, pt01e <dbl>, pt01f <dbl>, pt02b <dbl>, pt02c <dbl>,
## #   pt02d <dbl>, pt02e <dbl>, pt02f <dbl>, assessment <dbl>, sample <dbl>, l1_1 <dbl>, l1_2 <dbl>, l1_3 <dbl>, l1_4 <dbl>, l2_1 <dbl>, l2_2 <dbl>, l2_3 <dbl>, l2_4 <dbl>, l2_5 <dbl>,
## #   l3_1 <dbl>, l3_2 <dbl>, l3_3 <dbl>, l3_4 <dbl>, l3_5 <dbl>, l4_1 <dbl>, l4_2 <dbl>, l4_3 <dbl>, l4_4 <dbl>, l4_5 <dbl>, l4_6 <dbl>, l5_1 <dbl>, l5_2 <dbl>, l5_3 <dbl>,
## #   l5_4 <dbl>, l5_5 <dbl>, l6_1 <dbl>, l6_2 <dbl>, l6_3 <dbl>, l6_4 <dbl>, l6_5 <dbl>, n1 <dbl>, n2 <dbl>, n3 <dbl>, n4 <dbl>, n5 <dbl>, n6 <dbl>, n7 <dbl>, n8 <dbl>, n9 <dbl>, …

Next we extract the children from Mozambique that received an Reading IRT Score greater than \(1.5\). Multiple filter conditions are created with & (and) and | (or).

filter(dat, CountryName == "Mozambique" & ReadingIRTScore > 1.5)

## # A tibble: 390 × 147
##     ...1 CountryName TierOneUnit VillageID Location HHID      SubmissionDate duration hh06a hh06b1 hh06b2 hh06c hh06d hh07a hh07b hh07c hh07d hh07e hh07f hh07g hh07h hh07i hh07j hh07k
##    <dbl> <chr>       <chr>       <chr>     <chr>    <chr>     <date>            <dbl> <dbl>  <dbl>  <dbl> <dbl> <dbl> <dbl> <dbl> <dbl> <dbl> <dbl> <dbl> <dbl> <dbl> <dbl> <dbl> <dbl>
##  1    18 Mozambique  c101        c101      Urban    uuid:789… 2025-09-25         2511     7      1     NA     1     1     2     2     1     6     1     1     1     1     1     1     1
##  2    35 Mozambique  c101        c101      Urban    uuid:9a7… 2025-09-25         2868     8      1     NA     1     1     2     2     1     1     1     1     1     1     1     0     1
##  3   204 Mozambique  c101        c107      Urban    uuid:00d… 2025-09-22          898     6      1     NA     2     1     2     2     1     4     1     1     1     1     1     1     1
##  4   221 Mozambique  c101        c108      Rural    uuid:a3f… 2025-09-27         1643    12      1     NA     2     1     2     2     1     5     1     1     1     0     0     0     0
##  5   252 Mozambique  c101        c108      Rural    uuid:4b5… 2025-10-24          965     6      1     NA     2     1     2     2     1     5     1     1     1     0     1     0     1
##  6   421 Mozambique  c101        c114      Rural    uuid:b16… 2025-09-22         3217     4      1     NA     1     0     3     3     1     4     1     1     1     0     1     1     1
##  7   603 Mozambique  c101        c120      Rural    uuid:fff… 2025-09-21         2585     6      1     NA     1     1     2     2     1     4     1     1     0     1     1     0     0
##  8   677 Mozambique  c101        c122      Rural    uuid:635… 2025-09-27         1443    10      0     NA    NA     1     2     2     1     2     1     1     1     0     0     0     1
##  9   730 Mozambique  c102        c124      Rural    uuid:06e… 2025-10-24          630     4      0     NA    NA     1     3     3     2     4    NA     1     1     0     0     0     0
## 10   731 Mozambique  c102        c124      Rural    uuid:d48… 2025-10-24         1187     3      0     NA    NA     1     3     3     2     4    NA     1     1     0     0     0     0
## # ℹ 380 more rows
## # ℹ 123 more variables: hh07l <dbl>, hh07m <dbl>, hh07n <dbl>, hh07o <dbl>, hh07p <dbl>, hh07p_3 <dbl>, hh07q <dbl>, ChildID <chr>, ch02 <dbl>, ch03 <dbl>, ch04a <dbl>, ch04b <dbl>,
## #   ch04c <dbl>, ch04d <dbl>, ch04e <dbl>, ch04f <dbl>, ch05 <dbl>, ch06a <dbl>, ch06b <dbl>, ch06c <dbl>, ch06d <dbl>, ch06e <dbl>, ch07a <dbl>, ch07b <dbl>, ch07c <dbl>,
## #   ch07d <dbl>, ch08 <dbl>, ch09 <dbl>, ch10a <dbl>, ch10b <dbl>, ch10c <dbl>, pt00 <dbl>, pt01b <dbl>, pt01c <dbl>, pt01d <dbl>, pt01e <dbl>, pt01f <dbl>, pt02b <dbl>, pt02c <dbl>,
## #   pt02d <dbl>, pt02e <dbl>, pt02f <dbl>, assessment <dbl>, sample <dbl>, l1_1 <dbl>, l1_2 <dbl>, l1_3 <dbl>, l1_4 <dbl>, l2_1 <dbl>, l2_2 <dbl>, l2_3 <dbl>, l2_4 <dbl>, l2_5 <dbl>,
## #   l3_1 <dbl>, l3_2 <dbl>, l3_3 <dbl>, l3_4 <dbl>, l3_5 <dbl>, l4_1 <dbl>, l4_2 <dbl>, l4_3 <dbl>, l4_4 <dbl>, l4_5 <dbl>, l4_6 <dbl>, l5_1 <dbl>, l5_2 <dbl>, l5_3 <dbl>,
## #   l5_4 <dbl>, l5_5 <dbl>, l6_1 <dbl>, l6_2 <dbl>, l6_3 <dbl>, l6_4 <dbl>, l6_5 <dbl>, n1 <dbl>, n2 <dbl>, n3 <dbl>, n4 <dbl>, n5 <dbl>, n6 <dbl>, n7 <dbl>, n8 <dbl>, n9 <dbl>, …

Here’s another way of writing the same condition as above:

filter(dat, CountryName == "Mozambique", ReadingIRTScore > 1.5)

## # A tibble: 390 × 147
##     ...1 CountryName TierOneUnit VillageID Location HHID      SubmissionDate duration hh06a hh06b1 hh06b2 hh06c hh06d hh07a hh07b hh07c hh07d hh07e hh07f hh07g hh07h hh07i hh07j hh07k
##    <dbl> <chr>       <chr>       <chr>     <chr>    <chr>     <date>            <dbl> <dbl>  <dbl>  <dbl> <dbl> <dbl> <dbl> <dbl> <dbl> <dbl> <dbl> <dbl> <dbl> <dbl> <dbl> <dbl> <dbl>
##  1    18 Mozambique  c101        c101      Urban    uuid:789… 2025-09-25         2511     7      1     NA     1     1     2     2     1     6     1     1     1     1     1     1     1
##  2    35 Mozambique  c101        c101      Urban    uuid:9a7… 2025-09-25         2868     8      1     NA     1     1     2     2     1     1     1     1     1     1     1     0     1
##  3   204 Mozambique  c101        c107      Urban    uuid:00d… 2025-09-22          898     6      1     NA     2     1     2     2     1     4     1     1     1     1     1     1     1
##  4   221 Mozambique  c101        c108      Rural    uuid:a3f… 2025-09-27         1643    12      1     NA     2     1     2     2     1     5     1     1     1     0     0     0     0
##  5   252 Mozambique  c101        c108      Rural    uuid:4b5… 2025-10-24          965     6      1     NA     2     1     2     2     1     5     1     1     1     0     1     0     1
##  6   421 Mozambique  c101        c114      Rural    uuid:b16… 2025-09-22         3217     4      1     NA     1     0     3     3     1     4     1     1     1     0     1     1     1
##  7   603 Mozambique  c101        c120      Rural    uuid:fff… 2025-09-21         2585     6      1     NA     1     1     2     2     1     4     1     1     0     1     1     0     0
##  8   677 Mozambique  c101        c122      Rural    uuid:635… 2025-09-27         1443    10      0     NA    NA     1     2     2     1     2     1     1     1     0     0     0     1
##  9   730 Mozambique  c102        c124      Rural    uuid:06e… 2025-10-24          630     4      0     NA    NA     1     3     3     2     4    NA     1     1     0     0     0     0
## 10   731 Mozambique  c102        c124      Rural    uuid:d48… 2025-10-24         1187     3      0     NA    NA     1     3     3     2     4    NA     1     1     0     0     0     0
## # ℹ 380 more rows
## # ℹ 123 more variables: hh07l <dbl>, hh07m <dbl>, hh07n <dbl>, hh07o <dbl>, hh07p <dbl>, hh07p_3 <dbl>, hh07q <dbl>, ChildID <chr>, ch02 <dbl>, ch03 <dbl>, ch04a <dbl>, ch04b <dbl>,
## #   ch04c <dbl>, ch04d <dbl>, ch04e <dbl>, ch04f <dbl>, ch05 <dbl>, ch06a <dbl>, ch06b <dbl>, ch06c <dbl>, ch06d <dbl>, ch06e <dbl>, ch07a <dbl>, ch07b <dbl>, ch07c <dbl>,
## #   ch07d <dbl>, ch08 <dbl>, ch09 <dbl>, ch10a <dbl>, ch10b <dbl>, ch10c <dbl>, pt00 <dbl>, pt01b <dbl>, pt01c <dbl>, pt01d <dbl>, pt01e <dbl>, pt01f <dbl>, pt02b <dbl>, pt02c <dbl>,
## #   pt02d <dbl>, pt02e <dbl>, pt02f <dbl>, assessment <dbl>, sample <dbl>, l1_1 <dbl>, l1_2 <dbl>, l1_3 <dbl>, l1_4 <dbl>, l2_1 <dbl>, l2_2 <dbl>, l2_3 <dbl>, l2_4 <dbl>, l2_5 <dbl>,
## #   l3_1 <dbl>, l3_2 <dbl>, l3_3 <dbl>, l3_4 <dbl>, l3_5 <dbl>, l4_1 <dbl>, l4_2 <dbl>, l4_3 <dbl>, l4_4 <dbl>, l4_5 <dbl>, l4_6 <dbl>, l5_1 <dbl>, l5_2 <dbl>, l5_3 <dbl>,
## #   l5_4 <dbl>, l5_5 <dbl>, l6_1 <dbl>, l6_2 <dbl>, l6_3 <dbl>, l6_4 <dbl>, l6_5 <dbl>, n1 <dbl>, n2 <dbl>, n3 <dbl>, n4 <dbl>, n5 <dbl>, n6 <dbl>, n7 <dbl>, n8 <dbl>, n9 <dbl>, …

The %in% command is often useful when using dplyr verbs:

# Extract children from Mozambique who are ages 5, 9, and 13 years old and have an Reading IRT Score greater than 1.5
filter(dat, CountryName == "Mozambique", ch02 %in% c(5, 9, 13), ReadingIRTScore > 1.5)

## # A tibble: 74 × 147
##     ...1 CountryName TierOneUnit VillageID Location HHID      SubmissionDate duration hh06a hh06b1 hh06b2 hh06c hh06d hh07a hh07b hh07c hh07d hh07e hh07f hh07g hh07h hh07i hh07j hh07k
##    <dbl> <chr>       <chr>       <chr>     <chr>    <chr>     <date>            <dbl> <dbl>  <dbl>  <dbl> <dbl> <dbl> <dbl> <dbl> <dbl> <dbl> <dbl> <dbl> <dbl> <dbl> <dbl> <dbl> <dbl>
##  1    18 Mozambique  c101        c101      Urban    uuid:789… 2025-09-25         2511     7      1     NA     1     1     2     2     1     6     1     1     1     1     1     1     1
##  2   252 Mozambique  c101        c108      Rural    uuid:4b5… 2025-10-24          965     6      1     NA     2     1     2     2     1     5     1     1     1     0     1     0     1
##  3  1083 Mozambique  c102        c138      Urban    uuid:d76… 2025-10-02          720     3      1     NA     1     1     3     3     1     6     1     1     1     0     1     1     1
##  4  1199 Mozambique  c102        c141      Rural    uuid:560… 2025-10-09          581     4      1     NA     2     1     3     3     1     4     1     1     0     1     1     1     0
##  5  2165 Mozambique  c103        c173      Urban    uuid:a7a… 2025-08-11         2111     6      0     NA    NA     0     3     3     4     4    NA     1     0     0     0     0     0
##  6  2265 Mozambique  c104        c176      Urban    uuid:7fc… 2025-09-22         2155     7      1     NA     1     1     2     2     1     1     1     1     0     0     0     0     1
##  7  2291 Mozambique  c104        c177      Urban    uuid:736… 2025-09-18          991     3      1     NA     1     0     3     3     1     1     1     1     0     0     1     0     1
##  8  2343 Mozambique  c104        c178      Urban    uuid:63b… 2025-09-22         2007     6      1     NA     1     1     2     2     1     1     1     1     1     1     1     1     1
##  9  2737 Mozambique  c104        c187      Rural    uuid:c37… 2025-10-24          504     5      1     NA     2     1     3     3     4     4    NA     1     0     0     0     0     0
## 10  3305 Mozambique  c104        c205      Rural    uuid:70c… 2025-09-19         8859     2      1     NA     2     1     3     3     2     4    NA     1     0     0     1     0     0
## # ℹ 64 more rows
## # ℹ 123 more variables: hh07l <dbl>, hh07m <dbl>, hh07n <dbl>, hh07o <dbl>, hh07p <dbl>, hh07p_3 <dbl>, hh07q <dbl>, ChildID <chr>, ch02 <dbl>, ch03 <dbl>, ch04a <dbl>, ch04b <dbl>,
## #   ch04c <dbl>, ch04d <dbl>, ch04e <dbl>, ch04f <dbl>, ch05 <dbl>, ch06a <dbl>, ch06b <dbl>, ch06c <dbl>, ch06d <dbl>, ch06e <dbl>, ch07a <dbl>, ch07b <dbl>, ch07c <dbl>,
## #   ch07d <dbl>, ch08 <dbl>, ch09 <dbl>, ch10a <dbl>, ch10b <dbl>, ch10c <dbl>, pt00 <dbl>, pt01b <dbl>, pt01c <dbl>, pt01d <dbl>, pt01e <dbl>, pt01f <dbl>, pt02b <dbl>, pt02c <dbl>,
## #   pt02d <dbl>, pt02e <dbl>, pt02f <dbl>, assessment <dbl>, sample <dbl>, l1_1 <dbl>, l1_2 <dbl>, l1_3 <dbl>, l1_4 <dbl>, l2_1 <dbl>, l2_2 <dbl>, l2_3 <dbl>, l2_4 <dbl>, l2_5 <dbl>,
## #   l3_1 <dbl>, l3_2 <dbl>, l3_3 <dbl>, l3_4 <dbl>, l3_5 <dbl>, l4_1 <dbl>, l4_2 <dbl>, l4_3 <dbl>, l4_4 <dbl>, l4_5 <dbl>, l4_6 <dbl>, l5_1 <dbl>, l5_2 <dbl>, l5_3 <dbl>,
## #   l5_4 <dbl>, l5_5 <dbl>, l6_1 <dbl>, l6_2 <dbl>, l6_3 <dbl>, l6_4 <dbl>, l6_5 <dbl>, n1 <dbl>, n2 <dbl>, n3 <dbl>, n4 <dbl>, n5 <dbl>, n6 <dbl>, n7 <dbl>, n8 <dbl>, n9 <dbl>, …
…
